trunk/usercomp/vcdlog/test/vcdlog.vcd
$version VMLAB vcdlog component $end
$timescale 1 ns $end
$scope module vmlab $end
$var wire 1 ! COUNT0 $end
$var wire 1 " COUNT1 $end
$var wire 1 # COUNT2 $end
$var wire 1 $ COUNT3 $end
$upscope $end
$enddefinitions $end
x!
x"
x#
x$
#2053000
0!
0"
0#
0$
#2061000
1!
#2066000
0!
1"
#2071000
1!
#2076000
0!
0"
1#
#2081000
1!
#2086000
0!
1"
#2091000
1!
#2096000
0!
0"
0#
1$
#2101000
1!
#2106000
0!
1"
#2111000
1!
#2116000
0!
0"
1#
#2121000
1!
#2126000
0!
1"
#2131000
1!
